Homework8
…
  No  Yes 
 295 8465 

Convert the Date column to actual date type and other categorical variables into factors:

df <- df |>
  mutate(Date = parse_date_time(Date, "dmy")) |>
  mutate(Seasons = as.factor(Seasons)) |>
  mutate(Holiday = as.factor(Holiday))|>
  mutate(Functioning_Day = as.factor(Functioning_Day))

df

# A tibble: 8,760 × 14
   Date                Rented_Bike_Count  Hour Temperature_C Humidity_Percent
   <dttm>                          <dbl> <dbl>         <dbl>            <dbl>
 1 2017-12-01 00:00:00               254     0          -5.2               37
 2 2017-12-01 00:00:00               204     1          -5.5               38
 3 2017-12-01 00:00:00               173     2          -6                 39
 4 2017-12-01 00:00:00               107     3          -6.2               40
 5 2017-12-01 00:00:00                78     4          -6                 36
 6 2017-12-01 00:00:00               100     5          -6.4               37
 7 2017-12-01 00:00:00               181     6          -6.6               35
 8 2017-12-01 00:00:00               460     7          -7.4               38
 9 2017-12-01 00:00:00               930     8          -7.6               37
10 2017-12-01 00:00:00               490     9          -6.5               27
# ℹ 8,750 more rows
# ℹ 9 more variables: Wind_speed_m_per_s <dbl>, Visibility_10m <dbl>,
#   Dew_point_temperature_C <dbl>, Solar_Radiation_MJ_per_sq_m <dbl>,
#   Rainfall_mm <dbl>, Snowfall_cm <dbl>, Seasons <fct>, Holiday <fct>,
#   Functioning_Day <fct>
…
All Rented_Bike_Count values are 0 for Functioning_Day=No. Since the effects of other variables cannot influence the rentals on these days, we can filter them out to get a better picture of how the other variables influence the target.

Rented_Bike_Count is lower for holidays.

Rented_Bike_Count is highest in summer, followed by autumn, spring, and winter.

Subset the data to filter out Functioning_Day=No:

df_filtered <- df |>
  filter(Functioning_Day=='Yes')

df

# A tibble: 8,760 × 14
   Date                Rented_Bike_Count  Hour Temperature_C Humidity_Percent
   <dttm>                          <dbl> <dbl>         <dbl>            <dbl>
 1 2017-12-01 00:00:00               254     0          -5.2               37
 2 2017-12-01 00:00:00               204     1          -5.5               38
 3 2017-12-01 00:00:00               173     2          -6                 39
 4 2017-12-01 00:00:00               107     3          -6.2               40
 5 2017-12-01 00:00:00                78     4          -6                 36
 6 2017-12-01 00:00:00               100     5          -6.4               37
 7 2017-12-01 00:00:00               181     6          -6.6               35
 8 2017-12-01 00:00:00               460     7          -7.4               38
 9 2017-12-01 00:00:00               930     8          -7.6               37
10 2017-12-01 00:00:00               490     9          -6.5               27
# ℹ 8,750 more rows
# ℹ 9 more variables: Wind_speed_m_per_s <dbl>, Visibility_10m <dbl>,
#   Dew_point_temperature_C <dbl>, Solar_Radiation_MJ_per_sq_m <dbl>,
#   Rainfall_mm <dbl>, Snowfall_cm <dbl>, Seasons <fct>, Holiday <fct>,
#   Functioning_Day <fct>

df_filtered

# A tibble: 8,465 × 14
   Date                Rented_Bike_Count  Hour Temperature_C Humidity_Percent
   <dttm>                          <dbl> <dbl>         <dbl>            <dbl>
 1 2017-12-01 00:00:00               254     0          -5.2               37
 2 2017-12-01 00:00:00               204     1          -5.5               38
 3 2017-12-01 00:00:00               173     2          -6                 39
 4 2017-12-01 00:00:00               107     3          -6.2               40
 5 2017-12-01 00:00:00                78     4          -6                 36
 6 2017-12-01 00:00:00               100     5          -6.4               37
 7 2017-12-01 00:00:00               181     6          -6.6               35
 8 2017-12-01 00:00:00               460     7          -7.4               38
 9 2017-12-01 00:00:00               930     8          -7.6               37
10 2017-12-01 00:00:00               490     9          -6.5               27
# ℹ 8,455 more rows
# ℹ 9 more variables: Wind_speed_m_per_s <dbl>, Visibility_10m <dbl>,
#   Dew_point_temperature_C <dbl>, Solar_Radiation_MJ_per_sq_m <dbl>,
#   Rainfall_mm <dbl>, Snowfall_cm <dbl>, Seasons <fct>, Holiday <fct>,
#   Functioning_Day <fct>
…
Finally, let’s train on the entire dataset:

# fit on all data
full_fit <-day_wfl |>
  fit(day_df)

full_fit |>
  extract_fit_parsnip() |>
  tidy()

# A tibble: 26 × 5
   term                        estimate std.error statistic  p.value
   <chr>                          <dbl>     <dbl>     <dbl>    <dbl>
 1 (Intercept)                    7918.     1347.     5.88  1.00e- 8
 2 Rainfall_mm                   -2251.      221.   -10.2   1.91e-21
 3 Snowfall_cm                    -335.      179.    -1.87  6.22e- 2
 4 Temperature_C                 -2311.     3221.    -0.718 4.74e- 1
 5 Humidity_Percent              -2127.     1191.    -1.79  7.50e- 2
 6 Wind_speed_m_per_s             -545.      189.    -2.88  4.27e- 3
 7 Visibility_10m                  288.      283.     1.02  3.09e- 1
 8 Dew_point_temperature_C        7214.     3772.     1.91  5.67e- 2
 9 Solar_Radiation_MJ_per_sq_m    3223.      319.    10.1   3.94e-21
10 Date_monthFeb                 -1947.      846.    -2.30  2.19e- 2
# ℹ 16 more rows
